Aufgabe 06
…
Zunächst ist es für diverse Schritte in diesem Workflow wichtig, dass Ihr Arbeitsverzeichnis richtig gesetzt ist. Daher empfehle ich, dass Sie ein R-Projekt anlegen und dieses in RStudio öffnen. Alle weiteren Schritte können Sie dann innerhalb dieses Projekts ausführen.

Zum Einlesen der Kommentare ist zunächst das arrow-Paket notwendig.

library(tidyverse)
library(arrow)
theme_set(theme_minimal())

comments <- read_parquet("http://data.felix-dietrich.de/comments.parquet.gzip")

Wir können uns dann z.B. erstmal den Datensatz an sich ansehen…

comments

# A tibble: 280,427 × 14
    index comment_id  published_at comment author_channel_id video_id channel_id
    <int> <chr>       <chr>        <chr>   <chr>             <chr>    <chr>     
 1 145155 UgyJP-6d-f… 2019-03-11T… "I lov… UCjDkmRxO5uROl0f… LfGOtE2… UCOIGee5h…
 2 145143 UgzhMxly_w… 2019-03-11T… "Happy… UCHoSMv9ifkTtZz1… LfGOtE2… UCOIGee5h…
 3 144845 UgwK80w_07… 2019-03-11T… "I lov… UCmhVWRUcmpsk4qZ… LfGOtE2… UCOIGee5h…
 4 144734 UgwTrNQ-8C… 2019-03-11T… "Love … UCAJOUj7M9PSPB0l… LfGOtE2… UCOIGee5h…
 5 144456 Ugwi7wGKDL… 2019-03-11T… "LITER… UCggmCt5WdqV3ZRa… LfGOtE2… UCOIGee5h…
 6 144416 UgzqjG7MYk… 2019-03-11T… "Awwwe… UC1ckC8itaxzwVkh… LfGOtE2… UCOIGee5h…
 7 144076 Ugy17coYF2… 2019-03-11T… "Happy… UCTVpywQBD9HXXZM… LfGOtE2… UCOIGee5h…
 8 144024 Ugz5EHA4LL… 2019-03-11T… "I can… UCdUT9NO7KvR3X4J… LfGOtE2… UCOIGee5h…
 9 143986 UgyLGznLHC… 2019-03-11T… "Happy… UCGEQx1oICXRd28u… LfGOtE2… UCOIGee5h…
10 143779 UgxKv4x2gT… 2019-03-11T… "I mis… UCQJRL3fSEpsIs9A… LfGOtE2… UCOIGee5h…
# ℹ 280,417 more rows
# ℹ 7 more variables: view_count <chr>, like_count <chr>,
#   dislike_count <arrw_bnr>, favorite_count <chr>, video_published_at <dttm>,
#   video_date <date>, video_comment_count <chr>
…
Abschließend wollen wir nun die Videos transkribieren, damit wir ihren Inhalt später analysieren können. Dies funktioniert erneut über einen Befehl in der Kommandozeile Ihres Computers (nachdem Sie oben schon whisper-ctranslate2 installiert haben). Beispielhaft transkribieren wir hier nur eines der heruntergeladenen Videos, indem wir es im Befehl über den entsprechenden Pfad (Unterordner videos) und Dateinamen auswählen. Alternativ können wir auch alle Videos auf einmal transkribieren, indem wir im Befehl einen Platzhalter (videos/*.mp4) verwenden.

whisper-ctranslate2  --model medium --output_format tsv videos/MDMoo3wkMQs.mp4

Auch die erstellten Transkripe können wir (ähnlich wie oben die Metadaten) alle auf einmal einlesen, indem Sie den entsprechenden Befehl von oben modifizieren. Da wir testweise nur ein Video transkribiert haben, laden wir dieses einfach ein mit

transcript <- read_tsv("MDMoo3wkMQs.tsv")
transcript

# A tibble: 161 × 3
   start   end text                                   
   <dbl> <dbl> <chr>                                  
 1     0  2000 Today is New Year's gift opening day.  
 2  2000  4160 This is mine, and this is Rachel's.    
 3  4160  4660 Boo!                                   
 4  8660 10060 Don't worry, these gifts were cool.    
 5 10060 11680 Comment down below if you have an idea.
 6 11680 12480 Who goes first?                        
 7 12480 12980 Me!                                    
 8 12980 13480 Me!                                    
 9 13480 14480 Okay, rock, paper, scissors.           
10 14480 15480 Rock, paper, scissors!                 
# ℹ 151 more rows
